{
  "status": true,
  "time": 1637133720064,
  "code": 200,
  "properties": {},
  "data": {
    "content": [
      {
        "id": 252765,
        "center": "104.057546059824,30.5914154476973",
        "geomType": "polygon",
        "tags": {
          "newid": "22",
          "natural": "water",
          "polygon_category": "others"
        },
        "parentId": 0,
        "version": 1,
        "geom": "[[[104.05765816265,30.59123256583],[104.05761943286,30.59124172661],[104.05758054411,30.59125656202],[104.05754474261,30.59127633463],[104.05751286783,30.59130058081],[104.05748566722,30.59132873201],[104.05746377857,30.59136012812],[104.05744771517,30.59139403294],[104.05743785367,30.59142965145],[104.05743985681,30.59151418046],[104.05745236391,30.59155165755],[104.05747178057,30.59158688653],[104.05748777358,30.59160674251],[104.05760521425,30.59153367741],[104.05760405382,30.59146679999],[104.05760937537,30.59143831057],[104.05762573912,30.59141121379],[104.05765222316,30.59138295945],[104.05765977714,30.5913629775],[104.05765816265,30.59123256583]]]"
      },
      {
        "id": 252782,
        "center": "104.057876503635,30.5914112391501",
        "geomType": "polygon",
        "tags": {
          "newid": "22",
          "natural": "water",
          "polygon_category": "others"
        },
        "parentId": 0,
        "version": 1,
        "geom": "[[[104.05776098899,30.59136167457],[104.05776856376,30.59138018534],[104.05779668737,30.59140901307],[104.05781398512,30.59143567652],[104.05782032685,30.591465724],[104.05782145845,30.59153089506],[104.05794210507,30.59160132423],[104.05795667962,30.59158064424],[104.05797486381,30.5915449312],[104.05798606344,30.59150714892],[104.05798512935,30.59142260625],[104.05797413407,30.5913874987],[104.05795708214,30.59135423213],[104.05793436787,30.59132357578],[104.05790651647,30.59129623851],[104.05787417195,30.59127285245],[104.05783808222,30.59125395837],[104.0577990818,30.59123999315],[104.05775807236,30.59123128007],[104.05776098899,30.59136167457]]]"
      },
      {
        "id": 252806,
        "center": "104.062710068447,30.594692206385",
        "geomType": "polygon",
        "tags": {
          "newid": "22",
          "natural": "water",
          "polygon_category": "others"
        },
        "parentId": 0,
        "version": 1,
        "geom": "[[[104.06310647617,30.59489218668],[104.06311690539,30.59464983711],[104.06284868449,30.59454132263],[104.06261801451,30.59454132263],[104.0623149249,30.59456671965],[104.06210303038,30.5945851902],[104.0623149249,30.59470755753],[104.06248390406,30.59477220436],[104.06263678998,30.59482299827],[104.06277626485,30.59485301284],[104.06296133727,30.59487379215],[104.06310647617,30.59489218668]]]"
      },
      {
        "id": 252813,
        "center": "104.062032247932,30.5938930055688",
        "geomType": "polygon",
        "tags": {
          "newid": "22",
          "natural": "water",
          "polygon_category": "others"
        },
        "parentId": 0,
        "version": 1,
        "geom": "[[[104.06267165869,30.59442819038],[104.06256705254,30.59433121977],[104.06245171756,30.59425271969],[104.06232028931,30.59415344008],[104.06213138279,30.59395330498],[104.06211107701,30.59393179221],[104.06197964877,30.59372168803],[104.06189918013,30.59348232716],[104.06164168272,30.59348173192],[104.06174093217,30.59369398195],[104.06187772483,30.59389946852],[104.06204402179,30.59408186634],[104.06211435264,30.59413095316],[104.06234174699,30.59428966091],[104.06251072615,30.59436816097],[104.06267165869,30.59442819038]]]"
      },
      {
        "id": 252911,
        "center": "104.059423273459,30.5953000364591",
        "geomType": "polygon",
        "tags": {
          "newid": "22",
          "natural": "water",
          "polygon_category": "others"
        },
        "parentId": 0,
        "version": 1,
        "geom": "[[[104.05937449279,30.59530220758],[104.05937545879,30.59537420919],[104.05939547795,30.5953747477],[104.05939672915,30.5953968264],[104.05940924113,30.595407058],[104.05942433656,30.59541374693],[104.05943993826,30.59540655831],[104.05945226248,30.59539615923],[104.05945311165,30.59537406636],[104.05947311856,30.59537325793],[104.05947215775,30.59530164317],[104.05947114106,30.59522586325],[104.05945111802,30.59522544473],[104.05944968826,30.59520337403],[104.05943709383,30.59519321765],[104.05942130713,30.59518633475],[104.05940639142,30.59519331602],[104.05939415162,30.59520378874],[104.05939348117,30.5952258862],[104.05937348128,30.59522681451],[104.05937449279,30.59530220758]]]"
      },
      {
        "id": 253031,
        "center": "104.055631966809,30.5942133983781",
        "geomType": "polygon",
        "tags": {
          "name": "灵湖",
          "newid": "22",
          "natural": "water",
          "polygon_category": "others"
        },
        "parentId": 0,
        "version": 1,
        "geom": "[[[104.05609487951,30.59146823667],[104.05632018507,30.59148670781],[104.05653476179,30.59158368126],[104.05675470293,30.59177762788],[104.05682980478,30.59199928067],[104.05682980478,30.59250723309],[104.05678152502,30.59330148062],[104.05673860967,30.59347695303],[104.05664741457,30.59364780744],[104.05648648202,30.59385560294],[104.05626117647,30.59404030968],[104.05613243043,30.59429428087],[104.05600904882,30.59454363376],[104.05585884511,30.59465907469],[104.05568718374,30.59471448629],[104.05543505609,30.59482530939],[104.05530631006,30.5950146319],[104.05523657262,30.59516701316],[104.05523632864,30.59518465406],[104.05523120821,30.59555489166],[104.05534386098,30.59577653582],[104.05549942911,30.59591506316],[104.05568718374,30.59603512002],[104.05576765001,30.59614132405],[104.05576765001,30.59626138064],[104.05569791257,30.59639528974],[104.05560135305,30.59646455299],[104.05549406469,30.5965245811],[104.05533849657,30.59655228637],[104.05527412355,30.59658460918],[104.05526475715,30.59665053693],[104.05525838506,30.59669538851],[104.055502114,30.59691937814],[104.05567645758,30.5969840235],[104.05591517419,30.59701172864],[104.05623167485,30.59700941988],[104.05704170197,30.59700480235],[104.05722140998,30.59701865492],[104.05737161368,30.59708330021],[104.057465491,30.59717103303],[104.05755132169,30.59731186713],[104.057645199,30.597563521],[104.05766933888,30.59776899936],[104.05766397446,30.59817302858],[104.05766330592,30.59913576396],[104.05768811636,30.59925985707],[104.05772298507,30.59932276934],[104.05779942803,30.59937125215],[104.05782826178,30.59937298368],[104.05782960288,30.59954325053],[104.05773170225,30.59952189504],[104.05767537586,30.59948784169],[104.05762508444,30.5994376274],[104.05757546157,30.59934124072],[104.05753791064,30.59924889244],[104.05752986401,30.59909190018],[104.05754595727,30.59776669062],[104.05747621983,30.59738574724],[104.05740111798,30.59721489941],[104.05727773637,30.59712254911],[104.05707120627,30.59708330021],[104.0565133068,30.59709715277],[104.05586421221,30.5971179316],[104.05556648701,30.59707406517],[104.05535191029,30.59701865492],[104.05519097775,30.59694015701],[104.05491048847,30.59666231297],[104.05485301942,30.59660538581],[104.05470281571,30.59656151915],[104.05456065863,30.59653150511],[104.05445605248,30.59649687352],[104.05441045493,30.59643915416],[104.05439436167,30.59635142068],[104.05442923039,30.59627753979],[104.05453383654,30.59621520274],[104.05459552735,30.59614132174],[104.05462771386,30.59605127921],[104.05460952391,30.5955241421],[104.0545987337,30.59521144522],[104.05459552735,30.59511852593],[104.05455529422,30.59495921816],[104.05439704388,30.59459904311],[104.05425488681,30.59438894038],[104.05417173833,30.59420423431],[104.05413150519,30.59396642472],[104.05414491624,30.59377479133],[104.05421197146,30.59361548135],[104.054372904,30.59348156841],[104.05454724759,30.5933961411],[104.05470818013,30.59337536147],[104.05495762557,30.59337767031],[104.05516683787,30.59336381723],[104.05532240599,30.59332225795],[104.05544042319,30.59324375705],[104.0555430197,30.59311215072],[104.05558191173,30.5930030573],[104.05560135774,30.59286914352],[104.05557453364,30.59257649681],[104.05550479621,30.59244489131],[104.05546992749,30.5923155945],[104.05546992749,30.59210779569],[104.05552625388,30.59188845203],[104.05566304654,30.59164832787],[104.0558293435,30.59151441221],[104.05598222941,30.59147746993],[104.05609487951,30.59146823667]]]"
      },
      {
        "id": 253045,
        "center": "104.059704463238,30.5995407554393",
        "geomType": "polygon",
        "tags": {
          "newid": "22",
          "natural": "water",
          "polygon_category": "others"
        },
        "parentId": 0,
        "version": 1,
        "geom": "[[[104.05794963107,30.5995386337],[104.05795097217,30.59937702449],[104.05814006791,30.59937471579],[104.05839487776,30.59939780284],[104.05859604344,30.59947629875],[104.05878916249,30.59959288816],[104.05895277724,30.59963790779],[104.05931487545,30.59963906214],[104.05966892704,30.5996263643],[104.05974939331,30.59960096861],[104.05984997615,30.59953055325],[104.0599827455,30.59941050071],[104.06008735165,30.59934354827],[104.0602509664,30.59930430026],[104.06037300691,30.59932623297],[104.06043603882,30.59937356144],[104.06047358975,30.59944513126],[104.06048163638,30.59949015097],[104.06051248178,30.5995432511],[104.06055405602,30.59956402941],[104.06059697136,30.59956172071],[104.06066536769,30.59951900974],[104.06115218863,30.59910113387],[104.06115352973,30.59924889129],[104.06071498856,30.59964945129],[104.06066134438,30.59968061871],[104.06060501799,30.5996921622],[104.0605486916,30.59969100785],[104.05969038472,30.59972679265],[104.05901178584,30.59974987961],[104.05881732568,30.59971755786],[104.05871137843,30.59967022957],[104.05858263239,30.5996171295],[104.05827954277,30.59954440545],[104.05794963107,30.5995386337]]]"
      },
      {
        "id": 253046,
        "center": "104.062155628634,30.5980157704348",
        "geomType": "polygon",
        "tags": {
          "name": "奇湖",
          "layer": "1",
          "newid": "22",
          "natural": "water",
          "polygon_category": "others"
        },
        "parentId": 0,
        "version": 1,
        "geom": "[[[104.06126752362,30.59918424745],[104.06127288803,30.59900763101],[104.06132083854,30.59897050799],[104.0615129444,30.59882178054],[104.06156927079,30.59874097537],[104.06158536404,30.59720797314],[104.06169801682,30.59703481625],[104.06184553832,30.59697247969],[104.06244098872,30.59698864102],[104.06263142556,30.59704866881],[104.06282722682,30.5972102819],[104.06294792756,30.59744923675],[104.06297206745,30.59759468794],[104.06294524536,30.59799987225],[104.0628392981,30.59819842349],[104.0625536415,30.59864170036],[104.06223445863,30.59905265207],[104.06208961934,30.59917501376],[104.06200378865,30.5992096444],[104.06189382009,30.59921079702],[104.0617925667,30.5991807838],[104.06168460779,30.59911267685],[104.06161889367,30.59908958973],[104.06153775685,30.59910113329],[104.06149215929,30.5991138312],[104.06126752362,30.59918424745]]]"
      },
      {
        "id": 256267,
        "center": "104.0544679549,30.5997072818508",
        "geomType": "polygon",
        "tags": {
          "newid": "22",
          "natural": "water",
          "polygon_category": "others"
        },
        "parentId": 0,
        "version": 1,
        "geom": "[[[104.05463220614,30.59939315424],[104.054306643,30.59939433178],[104.05430972362,30.60002536297],[104.05462320957,30.60002422913],[104.05463220614,30.59939315424]]]"
      },
      {
        "id": 256269,
        "center": "104.054894445152,30.599707590009",
        "geomType": "polygon",
        "tags": {
          "newid": "22",
          "natural": "water",
          "polygon_category": "others"
        },
        "parentId": 0,
        "version": 1,
        "geom": "[[[104.05473418501,30.60001902225],[104.05505352566,30.60002267271],[104.05505044504,30.59939164151],[104.05473900981,30.59939175998],[104.05473418501,30.60001902225]]]"
      }
    ],
    "pageable": {
      "sort": {
        "sorted": false,
        "unsorted": true,
        "empty": true
      },
      "pageSize": 10,
      "pageNumber": 0,
      "offset": 0,
      "paged": true,
      "unpaged": false
    },
    "totalPages": 2,
    "totalElements": 12,
    "last": false,
    "first": true,
    "sort": {
      "sorted": false,
      "unsorted": true,
      "empty": true
    },
    "numberOfElements": 10,
    "size": 10,
    "number": 0,
    "empty": false
  }
}